# 3ds Max Wavefront OBJ Exporter v0.97b - (c)2007 guruware
# File Created: 05.12.2018 17:05:00

newmtl wire_027177088
	Ns 32.0000
	Ni 1.5000
	d 1.0000
	Tr 0.0000
	Tf 1.0000 1.0000 1.0000 
	illum 2
	Ka 0.1059 0.6941 0.3451
	Kd 0.1059 0.6941 0.3451
	Ks 0.3500 0.3500 0.3500
	Ke 0.0000 0.0000 0.0000

newmtl wire_087225143
	Ns 32.0000
	Ni 1.5000
	d 1.0000
	Tr 0.0000
	Tf 1.0000 1.0000 1.0000 
	illum 2
	Ka 0.3412 0.8824 0.5608
	Kd 0.3412 0.8824 0.5608
	Ks 0.3500 0.3500 0.3500
	Ke 0.0000 0.0000 0.0000

newmtl wire_028028177
	Ns 32.0000
	Ni 1.5000
	d 1.0000
	Tr 0.0000
	Tf 1.0000 1.0000 1.0000 
	illum 2
	Ka 0.1098 0.1098 0.6941
	Kd 0.1098 0.1098 0.6941
	Ks 0.3500 0.3500 0.3500
	Ke 0.0000 0.0000 0.0000

newmtl wire_184228153
	Ns 32.0000
	Ni 1.5000
	d 1.0000
	Tr 0.0000
	Tf 1.0000 1.0000 1.0000 
	illum 2
	Ka 0.7216 0.8941 0.6000
	Kd 0.7216 0.8941 0.6000
	Ks 0.3500 0.3500 0.3500
	Ke 0.0000 0.0000 0.0000

newmtl wire_010010010
	Ns 32.0000
	Ni 1.5000
	d 1.0000
	Tr 0.0000
	Tf 1.0000 1.0000 1.0000 
	illum 2
	Ka 0.0392 0.0392 0.0392
	Kd 0.0392 0.0392 0.0392
	Ks 0.3500 0.3500 0.3500
	Ke 0.0000 0.0000 0.0000

newmtl wire_087225198
	Ns 32.0000
	Ni 1.5000
	d 1.0000
	Tr 0.0000
	Tf 1.0000 1.0000 1.0000 
	illum 2
	Ka 0.3412 0.8824 0.7765
	Kd 0.3412 0.8824 0.7765
	Ks 0.3500 0.3500 0.3500
	Ke 0.0000 0.0000 0.0000

newmtl wire_143225087
	Ns 32.0000
	Ni 1.5000
	d 1.0000
	Tr 0.0000
	Tf 1.0000 1.0000 1.0000 
	illum 2
	Ka 0.5608 0.8824 0.3412
	Kd 0.5608 0.8824 0.3412
	Ks 0.3500 0.3500 0.3500
	Ke 0.0000 0.0000 0.0000

newmtl wire_008061138
	Ns 32.0000
	Ni 1.5000
	d 1.0000
	Tr 0.0000
	Tf 1.0000 1.0000 1.0000 
	illum 2
	Ka 0.0314 0.2392 0.5412
	Kd 0.0314 0.2392 0.5412
	Ks 0.3500 0.3500 0.3500
	Ke 0.0000 0.0000 0.0000
